<?xml version="1.0" encoding="UTF-8"?>
<svg width="20px" height="18px" viewBox="0 0 20 18" version="1.1" xmlns="http://www.w3.org/2000/svg"
    xmlns:xlink="http://www.w3.org/1999/xlink">
    <g stroke="none" stroke-width="1" fill="none" fill-rule="evenodd">
        <g transform="translate(-36.000000, -402.000000)" fill="#FFFFFF" fill-rule="nonzero">
            <g transform="translate(0.000000, 384.000000)">
                <g transform="translate(36.000000, 18.000000)">
                    <path
                        d="M9.98050682,6.78362573 C11.8507602,6.78362573 13.3723197,5.26206628 13.3723197,3.39181287 C13.3723197,1.52155945 11.8507602,0 9.98050682,0 C8.11025341,0 6.58869396,1.52155945 6.58869396,3.39181287 C6.58869396,5.26206628 8.11025341,6.78362573 9.98050682,6.78362573 Z M9.98050682,1.16959064 C11.205848,1.16959064 12.202729,2.16647173 12.202729,3.39181287 C12.202729,4.617154 11.205848,5.61403509 9.98050682,5.61403509 C8.75516569,5.61403509 7.7582846,4.617154 7.7582846,3.39181287 C7.7582846,2.16647173 8.75516569,1.16959064 9.98050682,1.16959064 Z">
                    </path>
                    <path
                        d="M16.8421053,6.78362573 C18.0244444,6.78362573 18.9863548,5.8217154 18.9863548,4.63937622 C18.9863548,3.45703704 18.0244444,2.49512671 16.8421053,2.49512671 C15.6597661,2.49512671 14.6978558,3.45703704 14.6978558,4.63937622 C14.6978558,5.8217154 15.6597661,6.78362573 16.8421053,6.78362573 Z M16.8421053,3.66471735 C17.3795322,3.66471735 17.8167641,4.10194932 17.8167641,4.63937622 C17.8167641,5.17680312 17.3795322,5.61403509 16.8421053,5.61403509 C16.3046784,5.61403509 15.8674464,5.17680312 15.8674464,4.63937622 C15.8674464,4.10194932 16.3046784,3.66471735 16.8421053,3.66471735 Z">
                    </path>
                    <path
                        d="M17.3138402,8.10916179 L16.4093567,8.10916179 C15.3435088,8.10916179 14.4234308,8.7388694 14.0041715,9.64335283 C13.1409747,8.70105263 11.9010916,8.10916179 10.5254971,8.10916179 L9.43555556,8.10916179 C8.05996101,8.10916179 6.82007797,8.70105263 5.95688109,9.64335283 C5.53758285,8.7388694 4.61750487,8.10916179 3.55165692,8.10916179 L2.64717349,8.10916179 C1.18752437,8.10916179 5.68434189e-14,9.28951267 5.68434189e-14,10.7403509 L5.68434189e-14,14.9980507 C5.68434189e-14,15.6279142 0.514385965,16.1403509 1.14666667,16.1403509 L4.72276803,16.1403509 C4.78272904,16.8382066 5.36955166,17.3879142 6.08272904,17.3879142 L13.8783236,17.3879142 C14.591462,17.3879142 15.1782846,16.8382066 15.2382846,16.1403509 L18.7735283,16.1403509 C19.4283431,16.1403509 19.9610526,15.6097466 19.9610526,14.9575049 L19.9610526,10.7403509 C19.9610136,9.28951267 18.7734893,8.10916179 17.3138402,8.10916179 L17.3138402,8.10916179 Z M1.16959064,10.7403509 C1.16959064,9.93442495 1.83243665,9.27875244 2.64717349,9.27875244 L3.55165692,9.27875244 C4.36639376,9.27875244 5.02923977,9.93442495 5.02923977,10.7403509 L5.02923977,11.1407797 C4.63598441,12.1647173 4.71734893,12.7783626 4.71734893,14.9707602 L1.16959064,14.9707602 L1.16959064,10.7403509 Z M14.0740741,16.0225731 C14.0740741,16.1305263 13.9862768,16.2183236 13.8783236,16.2183236 L6.08269006,16.2183236 C5.97473684,16.2183236 5.88693957,16.1304873 5.88693957,16.0225731 L5.88693957,12.8273684 C5.88693957,10.8706433 7.47883041,9.27875244 9.43551657,9.27875244 L10.5254581,9.27875244 C12.4821832,9.27875244 14.0740741,10.8706433 14.0740741,12.8273294 L14.0740741,16.0225731 Z M18.791423,14.9575049 C18.791423,14.9776608 19.0094347,14.9707602 15.2436647,14.9707602 C15.2436647,12.7621442 15.3244055,12.1630409 14.9317739,11.1407797 L14.9317739,10.7403509 C14.9317739,9.93442495 15.5946199,9.27875244 16.4093567,9.27875244 L17.3138402,9.27875244 C18.128577,9.27875244 18.791423,9.93442495 18.791423,10.7403509 L18.791423,14.9575049 Z">
                    </path>
                    <path
                        d="M3.11890838,6.78362573 C4.30124756,6.78362573 5.26315789,5.8217154 5.26315789,4.63937622 C5.26315789,3.45703704 4.30124756,2.49512671 3.11890838,2.49512671 C1.9365692,2.49512671 0.974658869,3.45703704 0.974658869,4.63937622 C0.974658869,5.8217154 1.9365692,6.78362573 3.11890838,6.78362573 Z M3.11890838,3.66471735 C3.65633528,3.66471735 4.09356725,4.10194932 4.09356725,4.63937622 C4.09356725,5.17680312 3.65633528,5.61403509 3.11890838,5.61403509 C2.58148148,5.61403509 2.14424951,5.17680312 2.14424951,4.63937622 C2.14424951,4.10194932 2.58148148,3.66471735 3.11890838,3.66471735 Z">
                    </path>
                </g>
            </g>
        </g>
    </g>
</svg>