<?xml version="1.0" encoding="UTF-8"?>
<svg width="25px" height="25px" viewBox="0 0 25 25" version="1.1" xmlns="http://www.w3.org/2000/svg" xmlns:xlink="http://www.w3.org/1999/xlink">
    <!-- Generator: sketchtool 54.1 (76490) - https://sketchapp.com -->
    <title>6A0F5C81-AE30-4E3D-8980-0517D3D39EF5</title>
    <desc>Created with sketchtool.</desc>
    <g id="Screens" stroke="none" stroke-width="1" fill="none" fill-rule="evenodd">
        <g id="Signin-New-01" transform="translate(-1042.000000, -672.000000)" fill="#212121" fill-rule="nonzero">
            <g id="Form" transform="translate(724.000000, 80.000000)">
                <g id="Github-button" transform="translate(280.000000, 574.866089)">
                    <g id="github" transform="translate(38.000000, 18.000000)">
                        <path d="M12.5,0 C5.59375,3.70068809e-15 0,5.49991777 0,12.2831497 C0,17.7111935 3.58125,22.3142497 8.546875,23.9371421 C9.171875,24.0527654 9.40104167,23.6725627 9.40104167,23.346526 C9.40104167,23.0548636 9.390625,22.2819585 9.38541667,21.2580155 C5.90833333,21.9986294 5.175,19.6101235 5.175,19.6101235 C4.60625,18.1924363 3.784375,17.8132753 3.784375,17.8132753 C2.65208333,17.0518284 3.871875,17.0674532 3.871875,17.0674532 C5.12708333,17.1528686 5.78645833,18.3330592 5.78645833,18.3330592 C6.90104167,20.2111562 8.7125,19.6684559 9.42708333,19.354919 C9.53958333,18.5601392 9.86145833,18.0195223 10.21875,17.7122352 C7.44270833,17.4049481 4.525,16.3487139 4.525,11.6425343 C4.525,10.3019293 5.009375,9.20611236 5.81145833,8.34675021 C5.67083333,8.03633819 5.24895833,6.78739852 5.92083333,5.09575715 C5.92083333,5.09575715 6.96770833,4.7665954 9.35833333,6.35511332 C10.3583333,6.08220073 11.4208333,5.94678609 12.4833333,5.94053619 C13.5458333,5.94678609 14.6083333,6.08220073 15.6083333,6.35511332 C17.9833333,4.7665954 19.0302083,5.09575715 19.0302083,5.09575715 C19.7020833,6.78739852 19.2802083,8.03633819 19.1552083,8.34675021 C19.9520833,9.20611236 20.4364583,10.3019293 20.4364583,11.6425343 C20.4364583,16.3612137 17.5145833,17.3997399 14.7333333,17.7018187 C15.1708333,18.0705632 15.5770833,18.8236769 15.5770833,19.9747014 C15.5770833,21.6184268 15.5614583,22.9392404 15.5614583,23.3381927 C15.5614583,23.6600629 15.7802083,24.0444322 16.4208333,23.9215174 C21.421875,22.3090415 25,17.7028603 25,12.2831497 C25,5.49991777 19.403125,0 12.5,0 L12.5,0 Z" id="Path"></path>
                    </g>
                </g>
            </g>
        </g>
    </g>
</svg>