<?xml version="1.0" encoding="UTF-8"?>
<svg width="25px" height="25px" viewBox="0 0 25 25" version="1.1" xmlns="http://www.w3.org/2000/svg" xmlns:xlink="http://www.w3.org/1999/xlink">
    <!-- Generator: sketchtool 54.1 (76490) - https://sketchapp.com -->
    <title>885CF9EF-C9EC-45F4-BEF4-E250A16F178D</title>
    <desc>Created with sketchtool.</desc>
    <g id="Screens" stroke="none" stroke-width="1" fill="none" fill-rule="evenodd">
        <g id="Signin-New-01" transform="translate(-762.000000, -672.000000)" fill="#0077B7" fill-rule="nonzero">
            <g id="Form" transform="translate(724.000000, 80.000000)">
                <g id="Linkedin-button" transform="translate(0.000000, 574.000000)">
                    <g id="linkedin" transform="translate(38.000000, 18.000000)">
                        <path d="M22.7385471,0 L2.26145288,0 C1.0125,0 0,1.0125 0,2.26145288 L0,22.7384817 C0,23.9875 1.0125,25 2.26145288,25 L22.7384817,25 C23.9875,25 25,23.9875 25,22.7384817 L25,2.26145288 C25,1.0125 23.9875,0 22.7385471,0 Z M7.73606021,21.5866492 C7.73606021,21.9501309 7.4414267,22.2447644 7.07794503,22.2447644 L4.27650524,22.2447644 C3.91302356,22.2447644 3.61839005,21.9501309 3.61839005,21.5866492 L3.61839005,9.84312827 C3.61839005,9.4796466 3.91302356,9.18501309 4.27650524,9.18501309 L7.07794503,9.18501309 C7.4414267,9.18501309 7.73606021,9.4796466 7.73606021,9.84312827 L7.73606021,21.5866492 Z M5.67722513,8.07801047 C4.20739529,8.07801047 3.0158377,6.88645288 3.0158377,5.41662304 C3.0158377,3.94679319 4.20739529,2.7552356 5.67722513,2.7552356 C7.14705497,2.7552356 8.33861257,3.94679319 8.33861257,5.41662304 C8.33861257,6.88645288 7.14712042,8.07801047 5.67722513,8.07801047 Z M22.3763089,21.6396597 C22.3763089,21.973822 22.1053665,22.2447644 21.7712042,22.2447644 L18.7650524,22.2447644 C18.4308901,22.2447644 18.1599476,21.973822 18.1599476,21.6396597 L18.1599476,16.1312827 C18.1599476,15.309555 18.4009817,12.5304319 16.0125,12.5304319 C14.1598168,12.5304319 13.7840314,14.4326571 13.7085733,15.286322 L13.7085733,21.6396597 C13.7085733,21.973822 13.4376963,22.2447644 13.1034686,22.2447644 L10.1960079,22.2447644 C9.86184555,22.2447644 9.59090314,21.973822 9.59090314,21.6396597 L9.59090314,9.7901178 C9.59090314,9.4559555 9.86184555,9.18501309 10.1960079,9.18501309 L13.1034686,9.18501309 C13.4376309,9.18501309 13.7085733,9.4559555 13.7085733,9.7901178 L13.7085733,10.8146597 C14.3955497,9.78370419 15.4164921,8.98795812 17.5902487,8.98795812 C22.4038613,8.98795812 22.3763089,13.4850785 22.3763089,15.9560209 L22.3763089,21.6396597 L22.3763089,21.6396597 Z" id="Shape"></path>
                    </g>
                </g>
            </g>
        </g>
    </g>
</svg>